module gitlab.com/qomarullah/go-mqtt

go 1.16

require (
	github.com/eclipse/paho.mqtt.golang v1.3.2
	github.com/fastly/go-utils v0.0.0-20180712184237-d95a45783239 // indirect
	github.com/jehiah/go-strftime v0.0.0-20171201141054-1d33003b3869 // indirect
	github.com/jonboulle/clockwork v0.2.2 // indirect
	github.com/lestrrat/go-envload v0.0.0-20180220120943-6ed08b54a570 // indirect
	github.com/lestrrat/go-file-rotatelogs v0.0.0-20180223000712-d3151e2a480f
	github.com/lestrrat/go-strftime v0.0.0-20180220042222-ba3bf9c1d042 // indirect
	github.com/pkg/errors v0.9.1 // indirect
	github.com/stretchr/testify v1.7.0 // indirect
	github.com/tebeka/strftime v0.1.5 // indirect
)
